{
  "disciplinas": {
    "disciplina": [
      {
        "codigo": "CET632",
        "nome": "CÁLCULO APLICADO I",
        "pre_requisitos": "",
        "carga_horaria": "75",
        "creditos": "5",
        "ementa": "Limite e continuidade de funções, deruvada, aplicações de derivada e Regra de L’Hopital",
        "objetivo": "Proporcionar aos estudantes os fundamentos de Cálculo diferencial, necessários para o  desenvolvimento de suas habilidades matemáticas.  Envolver os estudantes na pesquisa matemática utilizando os recursos tecnológicos como softwares, entre outros compatíveis para estudo de Cálculo.",
        "metodologia": "Apresentação teórica dos fundamentos de cálculo. Desenvolvimento de atividades individuais e/ou em grupo que explorem as aplicações práticas dos conhecimentos de Cálculo, visando a sedimentação e a justificação deste por parte dos alunos. Práticas laboratoriais a fim de exploração dos recursos tecnológicos. ",
        "avaliacao": "Resolução de problemas nas avaliações escritas (são previstas quatro avaliações escritas). Análise das atividades prática-laboratoriais.",
        "conteudo_programatico": "UNIDADE I - LIMITE E CONTINUIDADE DE FUNÇÕES  \n1.1	– Introdução ao conceito de limite  \n1.2	– Definição de limite  \n1.3	– Técnicas para a determinação de limites  \n1.4	– Limites laterais  \n1.5	– Limites no infinito  \n1.6	– Limites infinitos  \n1.7	– Funções contínuas.\n UNIDADE II – DERIVADA \n2.1	– Retas tangentes e taxas de variação \n2.2	– As equações das retas tangentes e normais  \n2.3	– Definição da derivada  \n2.4	– Diferenciabilidade e continuidade  \n2.5	– Técnicas de diferenciação  \n2.6	– Derivada de funções exponenciais e logarítmicas.\n UNIDADE III – APLICAÇÕES DA DERIVADA  \n3.1	– Razão de variação  \n3.2	– Taxas relacionadas  \n3.3	– Extremos das funções (esboço dos gráficos de funções)  \n3.4	– O teorema do valor intermediário  \n3.4	– O teorema do valor médio  \n3.5	– Funções crescentes e decrescentes e o teste da derivada primeira  \n3.6	– Derivadas de ordem superior  \n3.8	– Concavidade e o teste da derivada Segunda  \n3.9	– Formas indeterminadas: Regra de L’Hôpital. ",
        "referencia": "\nÁVILA Geraldo. Introdução às Funções e à Derivada. Editora – São Paulo.  \nLEITHOLD, Louis. O cálculo com Geometria Analítica. Editora HARBRA ltda. São Paulo, SP. Volume I.  \nMUNEN, Mustafa A, FOULIS, David J. Cálculo. Supervisão da tradução de Mário Ferreira Sobrinho. – 2a ed. – Vol. 1, pp. 605 – Rio de Janeiro: Ed. Guamabara Dois, 1983.  \nSWOKOWSKI, Earl W. Cálculo com Geometria Analítica. Tradução Alfredo Alves de Faria, com a colaboração dos professores Vera Regina L.F. Flores e Marcio Quintão Moreno, 2. ed. - - São Paulo: Makron Books, 1994.  \nWILLIAM, E. Boyer, RICARDO, C. Diprima. Equações Diferenciais Elementares e Problemas de Valor de Contorno. Traduzido por Natonio C. C. Carvalho e Carlos A. A. Carvalho. - 2a ed. – pp. 587 – Rio de Janeiro: Ed. GUANABARA KOOGA S.A. – 1990. "
      },
      {
        "codigo": "CET633",
        "nome": "FÍSICA PARA CIÊNCIA DA COMPUTAÇÃO",
        "pre_requisitos": "",
        "carga_horaria": "60",
        "creditos": "4",
        "ementa": "Estrutura da matéria, física do estado sólido e introdução à mecânica quântica.",
        "objetivo": "O aluno deverá compreender os conceitos da Física aplicáveis na Ciência da Computação.",
        "metodologia": "O curso constará de aulas expositivas. ",
          "avaliacao": "Avaliar-se-á através de testes, provas e relatórios.",
        "conteudo_programatico": "\n1.	Introdução histórica a mecânica quântica \n1.1.	Radiação de corpo negro  \n\n1.2.	Efeito fotoelétrico  \n1.3.	Teoria dos fótons  \n2.	Modelos atômicos  \n3.	Princípios fundamentais da mecânica quântica  \n4.	Métodos da mecânica quântica  \n5.	Mecânica quântica de átomos  \n6.	Estrutura dos cristais e ligações nos sólidos  \n7.	Teoria dos eletros livres nos sólidos  \n8.	Teoria de banda nos sólidos  \n9.	Semicondutores  \n10.	Dispositivos semicondutores. ",
        "referencia": "\nALVARENGA,Beatriz. Física, São Paulo: Ed. Bernardo Álvares, 1975.  Volume 01.  \nALVES FILHO, Avelino, et al. Física. São Paulo: Ed. Ática 1984.  Volume 01.  \nAMALDI, Ugo. Imagens da Física. São Paulo: Ed.Scipione ,1997. 534 p.  \nHALLIDAY, D.; RESNICK, R; Krane, K. Física. Rio de Janeiro: L.T.C., 1973. Volume 01.  \nRAMALHO, Francisco et al. Os Fundamentos da Física. São Paulo: Ed. Moderna 1988. Volume 01.  \nNARCISO, Garcia, DAMASK, Arthur, SCHWARZ, Steven, Physics for Computer Science Students, Second Edition. Springer. "
      },
      {
        "codigo": "LTA332",
        "nome": "Inglês Instrumental",
        "pre_requisitos": "",
        "carga_horaria": "30",
        "creditos": "2",
        "ementa": "Estudos de diferentes textos da área através das várias estratégias de leitura, visando a aquisição de informações, a compreensão, análise, reflexão, discussão e interpretação de cada parágrafo; identificação das idéias gerais e específicas, e apreensão das variadas formas e funções da linguagem apresentadas no texto.",
        "objetivo": "Capacitar os estudantes, através de diferentes estratégias, à leitura de textos autênticos da área nos vários níveis de compreensão, analisando e discutindo as idéias principais e específicas contidas em cada parágrafo. Utilizar as referências vividas e o conhecimento prévio (sistemático e asistemático) para a compreensão e discussão dos textos propostos.",
        "metodologia": "O curso possibilitará oportunidades de leitura individual e/ou em grupo de vários textos da área bem como, trabalhos de pesquisa, discussões, debates e apresentações.O curso possibilitará oportunidades de leitura individual e/ou em grupo de vários textos da área bem como, trabalhos de pesquisa, discussões, debates e apresentações.",
        "avaliacao": "Através do interesse, participação e desempenho nas atividades propostas.",
        "conteudo_programatico": "\n1.	Estratégias de leitura. Leitura de textos para busca de informações gerais. Leitura de textos para busca de informações específicas.  \n2.	Cognatos e falsos cognatos.  \n3.	Descoberta do signficado através do contexto. Palavras-chave.  \n4.	Detalhes tipográficos: pontuação, figuras, tabelas, gráficos, fonte e tipo de letras, lay-out, letras maiúsculas e itálicas.  \n5.	Tipos de textos: intruções, descrições, relatórios de pesquisa ou experimentos, resumos, sinopses, artigos, etc.  \n6.	Estrutura do texto: título, subtítulos, parágrafos introdutórios e conclusão.  \n7.	Uso do dicionário.  \n8.	Texto e contexto.  \n9.	Tradução e interpretação de textos em Ciência da Computação.  \n10.	Gramática: números, artigos, pronomes, nomes, adjetivos, advérbios, conjunções, tempos verbais, etc.",
        "referencia": "\nDIAS, Reinildes. Reading Critically in English. Belo Horizonte: Ed. UFMG, 2002. 232 p.  \nHOLMES, John. Text tipology and the Preparation of Materials. Projeto Nacional do Ensino de Inglês Instrumental. São Paulo: Working Paper nº 10, 1984.  \nTORRES, Wilson. Gramática do Inglês Descomplicado. São Paulo: Ed. Moderna, 1987.  \nARAÚJO, A. D.; SILVA, S. M. S. Inglês Instrumental – Caminhos para a leitura. Alínea Publicações Editora. 2002.  \nBURNS, L. D.; BRYANT, N. O. The Business of Fashion: Designing, Manufacturing and Marketing. Fairchild Books & Visuals. 1997  \nMUNHOZ, R. Inglês instrumental: Estratégias de leitura - módulo I. São Paulo: Editora Texto Novo, 2001.  \nMUNHOZ, R. Inglês instrumental: Estratégias de leitura - módulo II. São Paulo: Editora Texto Novo, 2001."
      },
      {
        "codigo": "CET634",
        "nome": "INTRODUÇÃO À CIÊNCIA DACOMPUTAÇÃO",
        "pre_requisitos": "",
        "carga_horaria": "60",
        "creditos": "4",
        "ementa": "História da Computação. Visão geral de um sistema computacional. Sistemas numéricos: decimais, octal, hexa e binário. Representação e armazenamento da informação. Arquitetura de Von Neumann: memória, processador, unidades de entrada e saída, barramentos, gargalo de Von Neumann. Introdução ao Sistema Operacional. Introdução a rede de computadores. ",
        "objetivo": "Apresentar o mundo da computação ao aluno na forma mais abrangente possível, com a intenção de não apenas construir uma base para as futuras disciplinas, mas também de permitir que acompanhe e compreenda as novidades que ocorrem diariamente;",
        "metodologia": "O conteúdo da disciplina será desenvolvido através de aulas expositivas da teoria, de seminários temáticos e de trabalhos individuais e em trabalhos em grupo.",
        "avaliacao": "Avaliar-se-á através da realização de quatro créditos teóricos, onde poderão ser utilizados provas, avaliação de seminários, trabalhos individuais e em grupo.",
        "conteudo_programatico": "\n1.	História da computação \n1.1.	Ábaco \n1.2.	Os grandes nomes da história da computação e suas invenções \n1.3.	Allan M. Turing \n1.4.	von Newman \n1.5.	Evolução da física dos elementos sólidos \n2.	•Sistemas numéricos \n2.1.	Decimal, binário, octal e hexadecimal \n2.2.	Conversão entre as diferentes bases \n2.3.	Aritmética binária – 4 operações \n3.	Ponto Flutuante (decimal e binário) \n3.1.	Conversão entre as diferentes bases \n3.2.	Aritmética de ponto flutuante (+ - * / ) \n4.	Representação e armazenamento da informação \n4.1.	O que é dado e o que é informação \n4.2.	Tipos de dados e suas características \n5.	Unidades componentes de hardware \n5.1.	CPU \n5.1.1.	UC \n5.1.2.	ULA \n5.1.3.	Cache \n5.1.4.	Registradores \n5.2.	Barramentos \n5.2.1. Internos a CPU \n \n5.2.2. Comunicação entre os componentes da CPU 5.2.3. Externos a CPU \n5.3. Memória \n \n5.3.1. Operações básicas: leitura e gravação 5.3.2. Modificação e exclusão 5.3.3. Hierarquia \n \n5.3.4. Tipos de memórias 5.3.5. Tempo de acesso \n5.3.6. Tecnologias: RAM, ROM, ótica, eletromagnética, magnética, etc. 5.4. Periféricos \n \n5.4.1. Funções básicas 5.4.2. Dispositivos de Entrada 5.4.3. Dispositivos de saída 5.4.4. Aspectos de velocidade: interfaces \n \n5.4.5. Protocolo de comunicação: ACK/NAK 5.4.6. Formas de comunicação: serial e paralela \n5.4.7. Formas de transmissão: simplex, half-duplex e full-duplex \n6.	Introdução a sistemas operacionais \n6.1.	O que é, função, características, etc. \n\n\n6.2.	Processo de inicialização do SO (boot) \n6.3.	Fase de testes e carga do SO \n7.	Introdução a Redes de Computadores",
        "referencia": "\nTANENBAUM, Andrew S. Organização Estruturada de Computadores. L.T.C., 1999. 460 p.  \nBIGGS, Norman L. Introduction to Computing With Pascal ( Oxford Science Publications)  \nWHITE, Ron. Como Funciona o Computador. Quark do Brasil LTDA, 1995. 218 p.  \nHelp Informática - Ed. Globo."
      },
      {
        "codigo": "CET635",
        "nome": "LINGUAGEM PROGRAMAÇÃO I",
        "pre_requisitos": "",
        "carga_horaria": "90",
        "creditos": "5",
        "ementa": "Conceitos básicos de algoritmos. Construção de algoritmos: estrutura de um programa, tipos de dados escalares e estruturados , estruturas de controle.  Prática em construção de algoritmos: transcrição para uma linguagem de programação, depuração e documentação.",
        "objetivo": "Desenvolver o raciocínio lógico e a capacidade de abstração de maneira intuitiva, tornando o aluno apto a propor soluções algorítmicas.",
        "metodologia": "Aulas teóricas e práticas, iniciando com portugol e introduzindo paralelamente uma linguagem de programação. ",
        "avaliacao": "Avaliação escrita e trabalho computacional.",
        "conteudo_programatico": "\n1.	CONCEITOS BÁSICOS DE ALGORITMOS \n.	Introdução; \n \n.	O que é programa; \n \n.	Algoritmo; \n \n.	Linguagem de Programação; \n \n.	Portugol e fluxograma; \n \n2.	CONSTRUÇÃO DE ALGORITMOS \n.	Sintaxe x Semântica \n \n.	Elementos de uma Linguagem de Programação; \n. \n.	Tipos simples de dados: inteiro, caracter, real, lógico; \n \n.	Variáveis; \n \n.	Estrutura básica de um algoritmo em portugol; \n \n.	Atribuição, leitura e escrita; \n \n.	Operadores aritméticos, lógicos e relacionais; \n \n.	Documentação; \n \n3.	INTRODUÇÃO A UMA LINGUAGEM DE PROGRAMAÇÃO \n \n.	Linguagem de programação x Portugol; \n \n.	Depuração; \n \n.	Estruturas de controle condicional e de repetição na linguagem de programação; \n \n.	Tipos estruturados: \n \n.	Unidimensional; \n \n.	Cadeia de caracteres; \n \n.	Multidimensional; \n \n.	Heterogêneo (registro);",
        "referencia": "\nFARRER, Harry et al. Algoritmos Estruturados. 3 ed. Rio de Janeiro: LTC, 1999. 260 p. \n \nSCHILDT, Herbert. C Completo e Total. São Paulo: Makron, McGraw-Hill, 1990. 889 p \n \nGUIMARÃES, A. de M; LAGES, N. A. de C. Algoritmos e Estruturas de Dados.L.T.C, 1994. 216 p. \n \nTREMBLAY, Jean-Paul; BUNT, R.B. Ciência dos Computadores: uma Abordagem Algorítmica. Markon, 1997. 384 p. \n \nSALVETTI, D. D.; BARBOSA, L. M. Algoritmos. Markon, 1997. 274 pg."
      },
      {
        "codigo": "CET636",
        "nome": "LÓGICA PARA COMPUTAÇÃO",
        "pre_requisitos": "",
        "carga_horaria": "60",
        "creditos": "4",
        "ementa": "Análise lógica da linguagem cotidiana. Sentido lógico-matemático convencional dos conectivos. Simbologia de sentenças da linguagem cotidiana. Lógica Proposicional. Tabelas-verdade. Lógica de 1ª Ordem. Teoria e sistema formal.",
        "objetivo": "Fornecer aos discentes um embasamento teórico formal das Lógicas Proposicional e de Predicados. Desenvolver o pensamento crítico e a argumentação lógica.",
        "metodologia": "Aulas expositivas e exercícios.",
        "avaliacao": "Quatro provas escritas.",
        "conteudo_programatico": "\n1.	Introdução à Lógica \n \n2.	Lógica proposicional \n.	Sintaxe (simbologia) \n \n	Semântica (interpretação) \n \n.	Método de prova: tabela-verdadeSatisfatibilidade \n \n.	Conseqüência lógica \n \n.	Formas normais: conjuntiva e disjuntiva \n \n3.	Lógica de 1ª Ordem ou Lógica de predicados \n.	Quantificadores (existencial e universal) \n \n.	Sintaxe (simbologia) \n \n.	Semântica (interpretação): conjunto universo e predicados \n \n4.	Teoria de 1ª Ordem \n.	Decidibilidade \n \n.	Teoria axiomatizável \n \n5.	Sistema formal axiomático \n.	Linguagem \n \n	Axiomas \n \n	Regras de inferência: modus ponens, modus tollens, etc.",
        "referencia": "\nCOPI, M. Introdução à Lógica. Rio de Janeiro: Mestre Jou, 1978. 488 p. FILHO, A. Iniciação à Lógica Matemática. São Paulo:Nobel, 1986. 202 p. \n \nCHANG, C. & LEE, R. Symbolic Logic and Mechanical Theorem Proving. Academic Press, 1973. \n \nGERSTING, J. L. Fundamentos Matemáticos para a Ciência da Computação. LTC editora, 2001. "
      },
      {
        "codigo": "FCH310",
        "nome": "METODOLOGIA DA PESQUISA CIENTÍFICA",
        "pre_requisitos": "",
        "carga_horaria": "30",
        "creditos": "2",
        "ementa": "Pesquisa científica. Planejamento da pesquisa. Elementos dos textos científicos. Elaboração de um texto científico. ",
        "objetivo": "Fornecer aos discentes um embasamento teórico formal das Lógicas Proposicional e de Predicados. Desenvolver o pensamento crítico e a argumentação lógica.",
        "metodologia": "Apresentar a formatação e implementação de textos científicos, através da análise e produção de textos.",
        "avaliacao": "Provas objetivas e subjetivas, avaliação de textos produzidos pelos alunos.",
        "conteudo_programatico": "\n	1.Ciência e conhecimento científico \n \n	2.A pesquisa científica \n \n	3.O ciclo de vida da pesquisa científica \n \n	4.O papel da pesquisa no processo de aprendizagem \n \n	5.Tipos de pesquisa \n \n	6.Estudos exploratórios e referencial teórico \n \n	7.Planejamento da pesquisa \n \n	8.Desenvolvimento da argumentação \n \n	9.Hipóteses e evidências \n \n	10.Análise de dados \n \n	11.Elementos presentes nos textos científicos \no	11.1.Escrita de introduções e conclusões \no	11.2.Escrita com clareza, precisão, fluidez, objetividade \n \n	12.Artigos, Relatórios, Monografias, Dissertações, Teses \n \n	13.Elaboração de um texto científico.",
        "referencia": "\nCERVO, AL. L; BERVIAN, P., A Metodologia Científica. São Paulo: McGraw-Hill, 1983. FAZENDA, I. , Metodologia da Pesquisa. São Paulo: Cortez, 1997. \n \nGIL, A. C., Métodos e Técnicas de Pesquisa Social. 5. ed. São Paulo: Atlas, 1999. \n \nLAKATOS, E. M. e MARCONI M. de A., Fundamentos de Metodologia Científica. 4. ed. rev. e amp,l. São Paulo: Atlas, 2001"
      }


    ]
  }
}