{
  "Disciplinas": {
    "disciplina": [
      {
        "codigo": "CET636",
        "nome": "LÓGICA PARA COMPUTAÇÃO T1",
        "carga_horaria": "4",
        "fk_semestre_virgente": "1",
        "semestre_diciplina": "1",
        "fk_curso": "CIC",
        "fk_professor": "04",
        "turma": "T1",
        "CHS": "4"
      },
      {
        "codigo": "CET636",
        "nome": "LÓGICA PARA COMPUTAÇÃO T2",
        "carga_horaria": "4",
        "fk_semestre_virgente": "1",
        "semestre_diciplina": "1",
        "fk_curso": "CIC",
        "fk_professor": "45",
        "turma": "T2",
        "CHS": "4"
      },
      {
        "codigo": "CET636",
        "nome": "LÓGICA PARA COMPUTAÇÃO T3",
        "carga_horaria": "4",
        "fk_semestre_virgente": "1",
        "semestre_diciplina": "1",
        "fk_curso": "CIC",
        "fk_professor": "21",
        "turma": "T3",
        "CHS": "4"
      },
      {
        "codigo": "CET635",
        "nome": "LINGUAGEM DE PROGRAMAÇÃO I T1",
        "carga_horaria": "6",
        "fk_semestre_virgente": "1",
        "semestre_diciplina": "1",
        "fk_curso": "CIC",
        "fk_professor": "10",
        "turma": "T1",
        "CHS": "6"
      },
      {
        "codigo": "CET635",
        "nome": "LINGUAGEM DE PROGRAMAÇÃO I T2",
        "carga_horaria": "6",
        "fk_semestre_virgente": "1",
        "semestre_diciplina": "1",
        "fk_curso": "CIC",
        "fk_professor": "02",
        "turma": "T2",
        "CHS": "6"
      },
      {
        "codigo": "CET635",
        "nome": "LINGUAGEM DE PROGRAMAÇÃO I T3",
        "carga_horaria": "6",
        "fk_semestre_virgente": "1",
        "semestre_diciplina": "1",
        "fk_curso": "CIC",
        "fk_professor": "03",
        "turma": "T3",
        "CHS": "6"
      },
      {
        "codigo": "CET633",
        "nome": "FÍSICA P/CIENCIA DA COMPT.",
        "carga_horaria": "4",
        "fk_semestre_virgente": "1",
        "semestre_diciplina": "1",
        "fk_curso": "CIC",
        "fk_professor": "46",
        "turma": "T1",
        "CHS": "4"
      },
      {
        "codigo": "CET632",
        "nome": "CÁLCULO APLICADO I T1",
        "carga_horaria": "5",
        "fk_semestre_virgente": "1",
        "semestre_diciplina": "1",
        "fk_curso": "CIC",
        "fk_professor": "47",
        "turma": "T1",
        "CHS": "5"
      },
      {
        "codigo": "CET632",
        "nome": "CÁLCULO APLICADO I T2",
        "carga_horaria": "5",
        "fk_semestre_virgente": "1",
        "semestre_diciplina": "1",
        "fk_curso": "CIC",
        "fk_professor": "48",
        "turma": "T2",
        "CHS": "5"
      },
      {
        "codigo": "CET634",
        "nome": "INTRODUÇÃO A CIÊNCIA DA COMPUTAÇÃO",
        "carga_horaria": "4",
        "fk_semestre_virgente": "1",
        "semestre_diciplina": "1",
        "fk_curso": "CIC",
        "fk_professor": "23",
        "turma": "T1",
        "CHS": "4"
      },
      {
        "codigo": "FCH310",
        "nome": "METOD.PESQ.CIENTÍFICA",
        "carga_horaria": "2",
        "fk_semestre_virgente": "1",
        "semestre_diciplina": "1",
        "fk_curso": "CIC",
        "fk_professor": "31",
        "turma": "T1",
        "CHS": "2"
      },
      {
        "codigo": "LTA322",
        "nome": "INGLÊS INSTRUMENTAL T1",
        "carga_horaria": "2",
        "fk_semestre_virgente": "1",
        "semestre_diciplina": "1",
        "fk_curso": "CIC",
        "fk_professor": "49",
        "turma": "T1",
        "CHS": "2"
      },
      {
        "codigo": "CET641",
        "nome": "LINGUAGEM DE PROGRAMAÇÃO II T2",
        "carga_horaria": "6",
        "fk_semestre_virgente": "1",
        "semestre_diciplina": "2",
        "fk_curso": "CIC",
        "fk_professor": "02",
        "turma": "T2",
        "CHS": "6"
      },
      {
        "codigo": "CET641",
        "nome": "LINGUAGEM DE PROGRAMAÇÃO II T3",
        "carga_horaria": "6",
        "fk_semestre_virgente": "1",
        "semestre_diciplina": "2",
        "fk_curso": "CIC",
        "fk_professor": "13",
        "turma": "T3",
        "CHS": "6"
      },
      {
        "codigo": "CET638",
        "nome": "ALGEBRA E GEO .ANALITICA",
        "carga_horaria": "6",
        "fk_semestre_virgente": "1",
        "semestre_diciplina": "2",
        "fk_curso": "CIC",
        "fk_professor": "50",
        "turma": "T1",
        "CHS": "6"
      },
      {
        "codigo": "CET642",
        "nome": "LÓGICA DIGITAL I T1",
        "carga_horaria": "4",
        "fk_semestre_virgente": "1",
        "semestre_diciplina": "2",
        "fk_curso": "CIC",
        "fk_professor": "09",
        "turma": "T1",
        "CHS": "4"
      },
      {
        "codigo": "CET642",
        "nome": "LÓGICA DIGITAL I T2",
        "carga_horaria": "4",
        "fk_semestre_virgente": "1",
        "semestre_diciplina": "2",
        "fk_curso": "CIC",
        "fk_professor": "09",
        "turma": "T2",
        "CHS": "4"
      },
      {
        "codigo": "CET637",
        "nome": "ELETRÔNICA T1",
        "carga_horaria": "5",
        "fk_semestre_virgente": "1",
        "semestre_diciplina": "2",
        "fk_curso": "CIC",
        "fk_professor": "11",
        "turma": "T1",
        "CHS": "5"
      },
      {
        "codigo": "CET637",
        "nome": "ELETRÔNICA T2",
        "carga_horaria": "5",
        "fk_semestre_virgente": "1",
        "semestre_diciplina": "2",
        "fk_curso": "CIC",
        "fk_professor": "11",
        "turma": "T2",
        "CHS": "5"
      },
      {
        "codigo": "CET640",
        "nome": "FUNDAMENTOS MATEMÁTICOS PARA COMPUTAÇÃO T1",
        "carga_horaria": "4",
        "fk_semestre_virgente": "1",
        "semestre_diciplina": "2",
        "fk_curso": "CIC",
        "fk_professor": "18",
        "turma": "T1",
        "CHS": "4"
      },
      {
        "codigo": "CET639",
        "nome": "CÁLCULO APLICADO II",
        "carga_horaria": "5",
        "fk_semestre_virgente": "1",
        "semestre_diciplina": "2",
        "fk_curso": "CIC",
        "fk_professor": "51",
        "turma": "T1",
        "CHS": "5"
      },
      {
        "codigo": "LTA322",
        "nome": "INGLÊS INSTRUMENTAL T2",
        "carga_horaria": "2",
        "fk_semestre_virgente": "1",
        "semestre_diciplina": "2",
        "fk_curso": "CIC",
        "fk_professor": "32",
        "turma": "T2",
        "CHS": "2"
      },
      {
        "codigo": "CET640",
        "nome": "FUNDAMENTOS MATEMÁTICOS PARA COMPUTAÇÃO T2",
        "carga_horaria": "4",
        "fk_semestre_virgente": "1",
        "semestre_diciplina": "2",
        "fk_curso": "CIC",
        "fk_professor": "18",
        "turma": "T2",
        "CHS": "4"
      },
      {
        "codigo": "CET078",
        "nome": "LINGUAGEM DE PROGRAMAÇÃO III T1",
        "carga_horaria": "4",
        "fk_semestre_virgente": "1",
        "semestre_diciplina": "3",
        "fk_curso": "CIC",
        "fk_professor": "24",
        "turma": "T1",
        "CHS": "4"
      },
      {
        "codigo": "CET078",
        "nome": "LINGUAGEM DE PROGRAMAÇÃO III T2",
        "carga_horaria": "4",
        "fk_semestre_virgente": "1",
        "semestre_diciplina": "3",
        "fk_curso": "CIC",
        "fk_professor": "14",
        "turma": "T2",
        "CHS": "4"
      },
      {
        "codigo": "CET077",
        "nome": "ESTRUTURA DE DADOS T1",
        "carga_horaria": "4",
        "fk_semestre_virgente": "1",
        "semestre_diciplina": "3",
        "fk_curso": "CIC",
        "fk_professor": "17",
        "turma": "T1",
        "CHS": "4"
      },
      {
        "codigo": "CET077",
        "nome": "ESTRUTURA DE DADOS T2",
        "carga_horaria": "4",
        "fk_semestre_virgente": "1",
        "semestre_diciplina": "3",
        "fk_curso": "CIC",
        "fk_professor": "14",
        "turma": "T2",
        "CHS": "4"
      },
      {
        "codigo": "CET077",
        "nome": "ESTRUTURA DE DADOS T3",
        "carga_horaria": "4",
        "fk_semestre_virgente": "1",
        "semestre_diciplina": "3",
        "fk_curso": "CIC",
        "fk_professor": "45",
        "turma": "T3",
        "CHS": "4"
      },
      {
        "codigo": "CET065",
        "nome": "LÓGICA DIGITAL II T1",
        "carga_horaria": "4",
        "fk_semestre_virgente": "1",
        "semestre_diciplina": "3",
        "fk_curso": "CIC",
        "fk_professor": "19",
        "turma": "T1",
        "CHS": "4"
      },
      {
        "codigo": "CET065",
        "nome": "LÓGICA DIGITAL II T2",
        "carga_horaria": "4",
        "fk_semestre_virgente": "1",
        "semestre_diciplina": "3",
        "fk_curso": "CIC",
        "fk_professor": "19",
        "turma": "T2",
        "CHS": "4"
      },
      {
        "codigo": "CET074",
        "nome": "ÁLGEBRA ABSTRATA",
        "carga_horaria": "4",
        "fk_semestre_virgente": "1",
        "semestre_diciplina": "3",
        "fk_curso": "CIC",
        "fk_professor": "52",
        "turma": "T1",
        "CHS": "4"
      },
      {
        "codigo": "CAE015",
        "nome": "FUNDAMENTOS DE ECONOMIA ",
        "carga_horaria": "4",
        "fk_semestre_virgente": "1",
        "semestre_diciplina": "3",
        "fk_curso": "CIC",
        "fk_professor": "53",
        "turma": "T1",
        "CHS": "4"
      },
      {
        "codigo": "CET075",
        "nome": "CALCULO APLICADO III",
        "carga_horaria": "4",
        "fk_semestre_virgente": "1",
        "semestre_diciplina": "3",
        "fk_curso": "CIC",
        "fk_professor": "54",
        "turma": "T1",
        "CHS": "4"
      },
      {
        "codigo": "CET084",
        "nome": "PROJETO E ANÁLISE DE ALGORITIMOS T1",
        "carga_horaria": "4",
        "fk_semestre_virgente": "1",
        "semestre_diciplina": "4",
        "fk_curso": "CIC",
        "fk_professor": "21",
        "turma": "T1",
        "CHS": "4"
      },
      {
        "codigo": "CET080",
        "nome": "COMPUTAÇÃO GRÁFICA",
        "carga_horaria": "4",
        "fk_semestre_virgente": "1",
        "semestre_diciplina": "4",
        "fk_curso": "CIC",
        "fk_professor": "27",
        "turma": "T1",
        "CHS": "4"
      },
      {
        "codigo": "CET079",
        "nome": "ANALISE SIST. INF.",
        "carga_horaria": "4",
        "fk_semestre_virgente": "1",
        "semestre_diciplina": "4",
        "fk_curso": "CIC",
        "fk_professor": "14",
        "turma": "T1",
        "CHS": "4"
      },
      {
        "codigo": "CET081",
        "nome": "ORG. ARQU. COMP(OAC)",
        "carga_horaria": "4",
        "fk_semestre_virgente": "1",
        "semestre_diciplina": "4",
        "fk_curso": "CIC",
        "fk_professor": "33",
        "turma": "T1",
        "CHS": "4"
      },
      {
        "codigo": "CIJ098",
        "nome": "DIREITO E LEGISLAÇÃO",
        "carga_horaria": "4",
        "fk_semestre_virgente": "1",
        "semestre_diciplina": "4",
        "fk_curso": "CIC",
        "fk_professor": "55",
        "turma": "T1",
        "CHS": "4"
      },
      {
        "codigo": "CETO83",
        "nome": "PROBABILIDADE E ESTATISTICA",
        "carga_horaria": "4",
        "fk_semestre_virgente": "1",
        "semestre_diciplina": "4",
        "fk_curso": "CIC",
        "fk_professor": "56",
        "turma": "T1",
        "CHS": "4"
      },
      {
        "codigo": "CET082",
        "nome": "ORGA.RECUP.INFOR",
        "carga_horaria": "4",
        "fk_semestre_virgente": "1",
        "semestre_diciplina": "4",
        "fk_curso": "CIC",
        "fk_professor": "33",
        "turma": "T1",
        "CHS": "4"
      },
      {
        "codigo": "CET084",
        "nome": "PROJETO E ANÁLISE DE ALGORITIMOS T2",
        "carga_horaria": "4",
        "fk_semestre_virgente": "1",
        "semestre_diciplina": "4",
        "fk_curso": "CIC",
        "fk_professor": "18",
        "turma": "T2",
        "CHS": "4"
      },
      {
        "codigo": "CET089",
        "nome": "TEORIA DA COMPUTAÇÃO",
        "carga_horaria": "4",
        "fk_semestre_virgente": "1",
        "semestre_diciplina": "5",
        "fk_curso": "CIC",
        "fk_professor": "04",
        "turma": "T1",
        "CHS": "4"
      },
      {
        "codigo": "CET087",
        "nome": "CONCEITOS DE LP",
        "carga_horaria": "4",
        "fk_semestre_virgente": "1",
        "semestre_diciplina": "5",
        "fk_curso": "CIC",
        "fk_professor": "24",
        "turma": "T1",
        "CHS": "4"
      },
      {
        "codigo": "CET090",
        "nome": "BANCO DE DADOS I",
        "carga_horaria": "4",
        "fk_semestre_virgente": "1",
        "semestre_diciplina": "5",
        "fk_curso": "CIC",
        "fk_professor": "17",
        "turma": "T1",
        "CHS": "4"
      },
      {
        "codigo": "CET101",
        "nome": "SISTEMAS OPERACIONAIS",
        "carga_horaria": "4",
        "fk_semestre_virgente": "1",
        "semestre_diciplina": "5",
        "fk_curso": "CIC",
        "fk_professor": "11",
        "turma": "T1",
        "CHS": "4"
      },
      {
        "codigo": "CET068",
        "nome": "INTELIGENCIA ARTIFICAL",
        "carga_horaria": "4",
        "fk_semestre_virgente": "1",
        "semestre_diciplina": "5",
        "fk_curso": "CIC",
        "fk_professor": "21",
        "turma": "T1",
        "CHS": "4"
      },
      {
        "codigo": "CET086",
        "nome": "ANÁLISE NUMÉRICA",
        "carga_horaria": "4",
        "fk_semestre_virgente": "1",
        "semestre_diciplina": "5",
        "fk_curso": "CIC",
        "fk_professor": "57",
        "turma": "T1",
        "CHS": "4"
      },
      {
        "codigo": "CET088",
        "nome": "SOFTWARE BÁSICO",
        "carga_horaria": "4",
        "fk_semestre_virgente": "1",
        "semestre_diciplina": "5",
        "fk_curso": "CIC",
        "fk_professor": "33",
        "turma": "T1",
        "CHS": "4"
      },
      {
        "codigo": "CET091",
        "nome": "BANCO DADOS II",
        "carga_horaria": "4",
        "fk_semestre_virgente": "1",
        "semestre_diciplina": "6",
        "fk_curso": "CIC",
        "fk_professor": "25",
        "turma": "T1",
        "CHS": "4"
      },
      {
        "codigo": "CET096",
        "nome": "INTER HOMEM-MÁQUINA",
        "carga_horaria": "4",
        "fk_semestre_virgente": "1",
        "semestre_diciplina": "6",
        "fk_curso": "CIC",
        "fk_professor": "28",
        "turma": "T1",
        "CHS": "4"
      },
      {
        "codigo": "CET058",
        "nome": "COMPILADORES",
        "carga_horaria": "4",
        "fk_semestre_virgente": "1",
        "semestre_diciplina": "6",
        "fk_curso": "CIC",
        "fk_professor": "23",
        "turma": "T1",
        "CHS": "4"
      },
      {
        "codigo": "CET085",
        "nome": "ADM. PARA COMPUTAÇÃO",
        "carga_horaria": "4",
        "fk_semestre_virgente": "1",
        "semestre_diciplina": "6",
        "fk_curso": "CIC",
        "fk_professor": "58",
        "turma": "T1",
        "CHS": "4"
      },
      {
        "codigo": "CET098",
        "nome": "REDES COMPUTADORES I",
        "carga_horaria": "4",
        "fk_semestre_virgente": "1",
        "semestre_diciplina": "6",
        "fk_curso": "CIC",
        "fk_professor": "12",
        "turma": "T1",
        "CHS": "4"
      },
      {
        "codigo": "CET095",
        "nome": "ENGENHARIA SOFTWARE",
        "carga_horaria": "4",
        "fk_semestre_virgente": "1",
        "semestre_diciplina": "7",
        "fk_curso": "CIC",
        "fk_professor": "25",
        "turma": "T1",
        "CHS": "4"
      },
      {
        "codigo": "CET102",
        "nome": "TECNOLOGIA E SOCIEDADE",
        "carga_horaria": "2",
        "fk_semestre_virgente": "1",
        "semestre_diciplina": "7",
        "fk_curso": "CIC",
        "fk_professor": "01",
        "turma": "T1",
        "CHS": "2"
      },
      {
        "codigo": "CET092",
        "nome": "EMPREENDEDOR DE INFORMÁTICA",
        "carga_horaria": "4",
        "fk_semestre_virgente": "1",
        "semestre_diciplina": "7",
        "fk_curso": "CIC",
        "fk_professor": "25",
        "turma": "T1",
        "CHS": "4"
      },
      {
        "codigo": "CET100",
        "nome": "SISTEMAS DISTRIBUÍDOS",
        "carga_horaria": "4",
        "fk_semestre_virgente": "1",
        "semestre_diciplina": "7",
        "fk_curso": "CIC",
        "fk_professor": "01",
        "turma": "T1",
        "CHS": "4"
      },
      {
        "codigo": "CET099",
        "nome": "REDES DE COMPUTADORES II",
        "carga_horaria": "4",
        "fk_semestre_virgente": "1",
        "semestre_diciplina": "7",
        "fk_curso": "CIC",
        "fk_professor": "13",
        "turma": "T1",
        "CHS": "4"
      },
      {
        "codigo": "CET115",
        "nome": "PROCESSAMENTO DE IMAGENS",
        "carga_horaria": "4",
        "fk_semestre_virgente": "1",
        "semestre_diciplina": "8",
        "fk_curso": "CIC",
        "fk_professor": "27",
        "turma": "T1",
        "CHS": "4"
      },
      {
        "codigo": "CET124",
        "nome": "INTRODUÇÃO À BIOINFORMÁTICA",
        "carga_horaria": "4",
        "fk_semestre_virgente": "1",
        "semestre_diciplina": "8",
        "fk_curso": "CIC",
        "fk_professor": "44",
        "turma": "T1",
        "CHS": "4"
      },
      {
        "codigo": "CET064",
        "nome": "AQUISIÇÃO DE CONHECIMENTO",
        "carga_horaria": "5",
        "fk_semestre_virgente": "1",
        "semestre_diciplina": "8",
        "fk_curso": "CIC",
        "fk_professor": "01",
        "turma": "T1",
        "CHS": "5"
      },
      {
        "codigo": "CET107",
        "nome": "PROCESSAMENTO PARALELO",
        "carga_horaria": "4",
        "fk_semestre_virgente": "1",
        "semestre_diciplina": "8",
        "fk_curso": "CIC",
        "fk_professor": "08",
        "turma": "T1",
        "CHS": "4"
      },
      {
        "codigo": "CET1182",
        "nome": "PROGRAMAÇÃO PARA APLICAÇÕES WEB",
        "carga_horaria": "4",
        "fk_semestre_virgente": "1",
        "semestre_diciplina": "8",
        "fk_curso": "CIC",
        "fk_professor": "05",
        "turma": "T1",
        "CHS": "4"
      },
      {
        "codigo": "CET114",
        "nome": "COMPUTAÇÃO BIOINSPIRADA",
        "carga_horaria": "4",
        "fk_semestre_virgente": "1",
        "semestre_diciplina": "8",
        "fk_curso": "CIC",
        "fk_professor": "22",
        "turma": "T1",
        "CHS": "4"
      },
      {
        "codigo": "CET097",
        "nome": "ESTÁGIO SUPERVISIONADO T1",
        "carga_horaria": "2",
        "fk_semestre_virgente": "1",
        "semestre_diciplina": "8",
        "fk_curso": "CIC",
        "fk_professor": "17",
        "turma": "T1",
        "CHS": "2"
      },
      {
        "codigo": "CET097",
        "nome": "ESTÁGIO SUPERVISIONADO T2",
        "carga_horaria": "2",
        "fk_semestre_virgente": "1",
        "semestre_diciplina": "8",
        "fk_curso": "CIC",
        "fk_professor": "27",
        "turma": "T2",
        "CHS": "2"
      },
      {
        "codigo": "CET125",
        "nome": "TECNOLOGIA E EDUCAÇÃO ",
        "carga_horaria": "4",
        "fk_semestre_virgente": "1",
        "semestre_diciplina": "8",
        "fk_curso": "CIC",
        "fk_professor": "24",
        "turma": "T1",
        "CHS": "4"
      },
      {
        "codigo": "CET111",
        "nome": "TÓP. AVANÇADOS EM COMPUTAÇÃO I",
        "carga_horaria": "5",
        "fk_semestre_virgente": "1",
        "semestre_diciplina": "8",
        "fk_curso": "CIC",
        "fk_professor": "04",
        "turma": "T1",
        "CHS": "5"
      },
      {
        "codigo": "CET105",
        "nome": "COMPUTAÇÃO QUÂNTICA",
        "carga_horaria": "4",
        "fk_semestre_virgente": "1",
        "semestre_diciplina": "8",
        "fk_curso": "CIC",
        "fk_professor": "11",
        "turma": "T1",
        "CHS": "4"
      },
      {
        "codigo": "CET112",
        "nome": "TÓP. AVANÇADOS EM COMPUTAÇÃO II",
        "carga_horaria": "4",
        "fk_semestre_virgente": "1",
        "semestre_diciplina": "8",
        "fk_curso": "CIC",
        "fk_professor": "23",
        "turma": "T1",
        "CHS": "4"
      },
      {
        "codigo": "CET103",
        "nome": "ADM E SEGURANÇA DE REDES",
        "carga_horaria": "4",
        "fk_semestre_virgente": "1",
        "semestre_diciplina": "8",
        "fk_curso": "CIC",
        "fk_professor": "12",
        "turma": "T1",
        "CHS": "4"
      }
    ]
  }
}