{
  "DisciplinasDiaHora": {
    "disciplinaDiaHora": [
      {
        "fk_codigo": "CET632",
        "fk_turma": "T1",
        "fk_dia_hora": "33",
        "fk_sala": "9127"
      },
      {
        "fk_codigo": "CET632",
        "fk_turma": "T1",
        "fk_dia_hora": "63",
        "fk_sala": "9127"
      },
      {
        "fk_codigo": "CET632",
        "fk_turma": "T1",
        "fk_dia_hora": "34",
        "fk_sala": "9127"
      },
      {
        "fk_codigo": "CET632",
        "fk_turma": "T1",
        "fk_dia_hora": "64",
        "fk_sala": "9127"
      },
      {
        "fk_codigo": "CET632",
        "fk_turma": "T1",
        "fk_dia_hora": "65",
        "fk_sala": "9127"
      },
      {
        "fk_codigo": "CET633",
        "fk_turma": "T1",
        "fk_dia_hora": "31",
        "fk_sala": "9127"
      },
      {
        "fk_codigo": "CET633",
        "fk_turma": "T1",
        "fk_dia_hora": "51",
        "fk_sala": "9127"
      },
      {
        "fk_codigo": "CET633",
        "fk_turma": "T1",
        "fk_dia_hora": "32",
        "fk_sala": "9127"
      },
      {
        "fk_codigo": "CET633",
        "fk_turma": "T1",
        "fk_dia_hora": "52",
        "fk_sala": "9127"
      },
      {
        "fk_codigo": "CET634",
        "fk_turma": "T1",
        "fk_dia_hora": "35",
        "fk_sala": "não informado"
      },
      {
        "fk_codigo": "CET634",
        "fk_turma": "T1",
        "fk_dia_hora": "55",
        "fk_sala": "não informado"
      },
      {
        "fk_codigo": "CET634",
        "fk_turma": "T1",
        "fk_dia_hora": "36",
        "fk_sala": "não informado"
      },
      {
        "fk_codigo": "CET634",
        "fk_turma": "T1",
        "fk_dia_hora": "56",
        "fk_sala": "não informado"
      },
      {
        "fk_codigo": "CET635",
        "fk_turma": "T1",
        "fk_dia_hora": "23",
        "fk_sala": "não informado"
      },
      {
        "fk_codigo": "CET635",
        "fk_turma": "T1",
        "fk_dia_hora": "43",
        "fk_sala": "não informado"
      },
      {
        "fk_codigo": "CET635",
        "fk_turma": "T2",
        "fk_dia_hora": "23",
        "fk_sala": "não informado"
      },
      {
        "fk_codigo": "CET635",
        "fk_turma": "T2",
        "fk_dia_hora": "43",
        "fk_sala": "não informado"
      },
      {
        "fk_codigo": "CET635",
        "fk_turma": "T1",
        "fk_dia_hora": "24",
        "fk_sala": "não informado"
      },
      {
        "fk_codigo": "CET635",
        "fk_turma": "T2",
        "fk_dia_hora": "24",
        "fk_sala": "não informado"
      },
      {
        "fk_codigo": "CET635",
        "fk_turma": "T2",
        "fk_dia_hora": "44",
        "fk_sala": "não informado"
      },
      {
        "fk_codigo": "CET635",
        "fk_turma": "T1",
        "fk_dia_hora": "25",
        "fk_sala": "não informado"
      },
      {
        "fk_codigo": "CET635",
        "fk_turma": "T1",
        "fk_dia_hora": "45",
        "fk_sala": "não informado"
      },
      {
        "fk_codigo": "CET635",
        "fk_turma": "T2",
        "fk_dia_hora": "25",
        "fk_sala": "não informado"
      },
      {
        "fk_codigo": "CET635",
        "fk_turma": "T2",
        "fk_dia_hora": "45",
        "fk_sala": "não informado"
      },
      {
        "fk_codigo": "CET636",
        "fk_turma": "T1",
        "fk_dia_hora": "21",
        "fk_sala": "não informado"
      },
      {
        "fk_codigo": "CET636",
        "fk_turma": "T1",
        "fk_dia_hora": "41",
        "fk_sala": "não informado"
      },
      {
        "fk_codigo": "CET636",
        "fk_turma": "T2",
        "fk_dia_hora": "21",
        "fk_sala": "não informado"
      },
      {
        "fk_codigo": "CET636",
        "fk_turma": "T2",
        "fk_dia_hora": "41",
        "fk_sala": "não informado"
      },
      {
        "fk_codigo": "CET636",
        "fk_turma": "T1",
        "fk_dia_hora": "22",
        "fk_sala": "não informado"
      },
      {
        "fk_codigo": "CET636",
        "fk_turma": "T1",
        "fk_dia_hora": "42",
        "fk_sala": "não informado"
      },
      {
        "fk_codigo": "CET636",
        "fk_turma": "T2",
        "fk_dia_hora": "22",
        "fk_sala": "não informado"
      },
      {
        "fk_codigo": "CET636",
        "fk_turma": "T2",
        "fk_dia_hora": "42",
        "fk_sala": "não informado"
      },
      {
        "fk_codigo": "FCH310",
        "fk_turma": "T1",
        "fk_dia_hora": "53",
        "fk_sala": "9127"
      },
      {
        "fk_codigo": "FCH310",
        "fk_turma": "T1",
        "fk_dia_hora": "54",
        "fk_sala": "9127"
      },
      {
        "fk_codigo": "LTA322",
        "fk_turma": "T1",
        "fk_dia_hora": "61",
        "fk_sala": "9127"
      },
      {
        "fk_codigo": "LTA322",
        "fk_turma": "T1",
        "fk_dia_hora": "62",
        "fk_sala": "9127"
      },
      {
        "fk_codigo": "CET637",
        "fk_turma": "T2",
        "fk_dia_hora": "33",
        "fk_sala": "não informado"
      },
      {
        "fk_codigo": "CET637",
        "fk_turma": "T2",
        "fk_dia_hora": "53",
        "fk_sala": "não informado"
      },
      {
        "fk_codigo": "CET637",
        "fk_turma": "T2",
        "fk_dia_hora": "34",
        "fk_sala": "não informado"
      },
      {
        "fk_codigo": "CET637",
        "fk_turma": "T2",
        "fk_dia_hora": "54",
        "fk_sala": "não informado"
      },
      {
        "fk_codigo": "CET637",
        "fk_turma": "T1",
        "fk_dia_hora": "39",
        "fk_sala": "não informado"
      },
      {
        "fk_codigo": "CET637",
        "fk_turma": "T1",
        "fk_dia_hora": "59",
        "fk_sala": "não informado"
      },
      {
        "fk_codigo": "CET637",
        "fk_turma": "T1",
        "fk_dia_hora": "310",
        "fk_sala": "não informado"
      },
      {
        "fk_codigo": "CET637",
        "fk_turma": "T1",
        "fk_dia_hora": "510",
        "fk_sala": "não informado"
      },
      {
        "fk_codigo": "CET638",
        "fk_turma": "T1",
        "fk_dia_hora": "210",
        "fk_sala": "9132"
      },
      {
        "fk_codigo": "CET638",
        "fk_turma": "T1",
        "fk_dia_hora": "410",
        "fk_sala": "9132"
      },
      {
        "fk_codigo": "CET638",
        "fk_turma": "T1",
        "fk_dia_hora": "610",
        "fk_sala": "9132"
      },
      {
        "fk_codigo": "CET638",
        "fk_turma": "T1",
        "fk_dia_hora": "211",
        "fk_sala": "9132"
      },
      {
        "fk_codigo": "CET638",
        "fk_turma": "T1",
        "fk_dia_hora": "411",
        "fk_sala": "9132"
      },
      {
        "fk_codigo": "CET638",
        "fk_turma": "T1",
        "fk_dia_hora": "611",
        "fk_sala": "9132"
      },
      {
        "fk_codigo": "CET639",
        "fk_turma": "T1",
        "fk_dia_hora": "67",
        "fk_sala": "9132"
      },
      {
        "fk_codigo": "CET639",
        "fk_turma": "T1",
        "fk_dia_hora": "68",
        "fk_sala": "9132"
      },
      {
        "fk_codigo": "CET639",
        "fk_turma": "T1",
        "fk_dia_hora": "69",
        "fk_sala": "9132"
      },
      {
        "fk_codigo": "CET639",
        "fk_turma": "T1",
        "fk_dia_hora": "311",
        "fk_sala": "9131"
      },
      {
        "fk_codigo": "CET639",
        "fk_turma": "T1",
        "fk_dia_hora": "312",
        "fk_sala": "9131"
      },
      {
        "fk_codigo": "CET640",
        "fk_turma": "T2",
        "fk_dia_hora": "25",
        "fk_sala": "9131"
      },
      {
        "fk_codigo": "CET640",
        "fk_turma": "T2",
        "fk_dia_hora": "45",
        "fk_sala": "9131"
      },
      {
        "fk_codigo": "CET640",
        "fk_turma": "T2",
        "fk_dia_hora": "26",
        "fk_sala": "9131"
      },
      {
        "fk_codigo": "CET640",
        "fk_turma": "T2",
        "fk_dia_hora": "46",
        "fk_sala": "9131"
      },
      {
        "fk_codigo": "CET640",
        "fk_turma": "T1",
        "fk_dia_hora": "37",
        "fk_sala": "9131"
      },
      {
        "fk_codigo": "CET640",
        "fk_turma": "T1",
        "fk_dia_hora": "57",
        "fk_sala": "9130"
      },
      {
        "fk_codigo": "CET640",
        "fk_turma": "T1",
        "fk_dia_hora": "38",
        "fk_sala": "9131"
      },
      {
        "fk_codigo": "CET640",
        "fk_turma": "T1",
        "fk_dia_hora": "58",
        "fk_sala": "9130"
      },
      {
        "fk_codigo": "CET641",
        "fk_turma": "T2",
        "fk_dia_hora": "27",
        "fk_sala": "não informado"
      },
      {
        "fk_codigo": "CET641",
        "fk_turma": "T2",
        "fk_dia_hora": "47",
        "fk_sala": "não informado"
      },
      {
        "fk_codigo": "CET641",
        "fk_turma": "T2",
        "fk_dia_hora": "28",
        "fk_sala": "não informado"
      },
      {
        "fk_codigo": "CET641",
        "fk_turma": "T2",
        "fk_dia_hora": "48",
        "fk_sala": "não informado"
      },
      {
        "fk_codigo": "CET641",
        "fk_turma": "T2",
        "fk_dia_hora": "29",
        "fk_sala": "não informado"
      },
      {
        "fk_codigo": "CET641",
        "fk_turma": "T2",
        "fk_dia_hora": "49",
        "fk_sala": "não informado"
      },
      {
        "fk_codigo": "CET642",
        "fk_turma": "T2",
        "fk_dia_hora": "35",
        "fk_sala": "não informado"
      },
      {
        "fk_codigo": "CET642",
        "fk_turma": "T2",
        "fk_dia_hora": "55",
        "fk_sala": "não informado"
      },
      {
        "fk_codigo": "CET642",
        "fk_turma": "T2",
        "fk_dia_hora": "36",
        "fk_sala": "não informado"
      },
      {
        "fk_codigo": "CET642",
        "fk_turma": "T2",
        "fk_dia_hora": "56",
        "fk_sala": "não informado"
      },
      {
        "fk_codigo": "CET642",
        "fk_turma": "T1",
        "fk_dia_hora": "39",
        "fk_sala": "não informado"
      },
      {
        "fk_codigo": "CET642",
        "fk_turma": "T1",
        "fk_dia_hora": "59",
        "fk_sala": "não informado"
      },
      {
        "fk_codigo": "CET642",
        "fk_turma": "T1",
        "fk_dia_hora": "310",
        "fk_sala": "não informado"
      },
      {
        "fk_codigo": "CET642",
        "fk_turma": "T1",
        "fk_dia_hora": "510",
        "fk_sala": "não informado"
      },
      {
        "fk_codigo": "CAE015",
        "fk_turma": "T1",
        "fk_dia_hora": "33",
        "fk_sala": "9247"
      },
      {
        "fk_codigo": "CAE015",
        "fk_turma": "T1",
        "fk_dia_hora": "53",
        "fk_sala": "9131"
      },
      {
        "fk_codigo": "CAE015",
        "fk_turma": "T1",
        "fk_dia_hora": "34",
        "fk_sala": "9247"
      },
      {
        "fk_codigo": "CAE015",
        "fk_turma": "T1",
        "fk_dia_hora": "54",
        "fk_sala": "9131"
      },
      {
        "fk_codigo": "CET065",
        "fk_turma": "T1",
        "fk_dia_hora": "23",
        "fk_sala": "não informado"
      },
      {
        "fk_codigo": "CET065",
        "fk_turma": "T1",
        "fk_dia_hora": "43",
        "fk_sala": "não informado"
      },
      {
        "fk_codigo": "CET065",
        "fk_turma": "T1",
        "fk_dia_hora": "24",
        "fk_sala": "não informado"
      },
      {
        "fk_codigo": "CET065",
        "fk_turma": "T2",
        "fk_dia_hora": "25",
        "fk_sala": "não informado"
      },
      {
        "fk_codigo": "CET065",
        "fk_turma": "T2",
        "fk_dia_hora": "45",
        "fk_sala": "não informado"
      },
      {
        "fk_codigo": "CET065",
        "fk_turma": "T2",
        "fk_dia_hora": "26",
        "fk_sala": "não informado"
      },
      {
        "fk_codigo": "CET065",
        "fk_turma": "T2",
        "fk_dia_hora": "46",
        "fk_sala": "não informado"
      },
      {
        "fk_codigo": "CET065",
        "fk_turma": "T1",
        "fk_dia_hora": "44",
        "fk_sala": "não informado"
      },
      {
        "fk_codigo": "CET074",
        "fk_turma": "T1",
        "fk_dia_hora": "31",
        "fk_sala": "9249"
      },
      {
        "fk_codigo": "CET074",
        "fk_turma": "T1",
        "fk_dia_hora": "51",
        "fk_sala": "9249"
      },
      {
        "fk_codigo": "CET074",
        "fk_turma": "T1",
        "fk_dia_hora": "32",
        "fk_sala": "9249"
      },
      {
        "fk_codigo": "CET074",
        "fk_turma": "T1",
        "fk_dia_hora": "52",
        "fk_sala": "9249"
      },
      {
        "fk_codigo": "CET075",
        "fk_turma": "T1",
        "fk_dia_hora": "35",
        "fk_sala": "não informado"
      },
      {
        "fk_codigo": "CET075",
        "fk_turma": "T1",
        "fk_dia_hora": "55",
        "fk_sala": "não informado"
      },
      {
        "fk_codigo": "CET075",
        "fk_turma": "T1",
        "fk_dia_hora": "36",
        "fk_sala": "não informado"
      },
      {
        "fk_codigo": "CET075",
        "fk_turma": "T1",
        "fk_dia_hora": "56",
        "fk_sala": "não informado"
      },
      {
        "fk_codigo": "CET077",
        "fk_turma": "T1",
        "fk_dia_hora": "23",
        "fk_sala": "não informado"
      },
      {
        "fk_codigo": "CET077",
        "fk_turma": "T1",
        "fk_dia_hora": "43",
        "fk_sala": "não informado"
      },
      {
        "fk_codigo": "CET077",
        "fk_turma": "T1",
        "fk_dia_hora": "24",
        "fk_sala": "não informado"
      },
      {
        "fk_codigo": "CET077",
        "fk_turma": "T1",
        "fk_dia_hora": "44",
        "fk_sala": "não informado"
      },
      {
        "fk_codigo": "CET077",
        "fk_turma": "T2",
        "fk_dia_hora": "25",
        "fk_sala": "não informado"
      },
      {
        "fk_codigo": "CET077",
        "fk_turma": "T2",
        "fk_dia_hora": "45",
        "fk_sala": "não informado"
      },
      {
        "fk_codigo": "CET077",
        "fk_turma": "T2",
        "fk_dia_hora": "26",
        "fk_sala": "não informado"
      },
      {
        "fk_codigo": "CET077",
        "fk_turma": "T2",
        "fk_dia_hora": "46",
        "fk_sala": "não informado"
      },
      {
        "fk_codigo": "CET077",
        "fk_turma": "T3",
        "fk_dia_hora": "27",
        "fk_sala": "não informado"
      },
      {
        "fk_codigo": "CET077",
        "fk_turma": "T3",
        "fk_dia_hora": "47",
        "fk_sala": "não informado"
      },
      {
        "fk_codigo": "CET077",
        "fk_turma": "T3",
        "fk_dia_hora": "28",
        "fk_sala": "não informado"
      },
      {
        "fk_codigo": "CET077",
        "fk_turma": "T3",
        "fk_dia_hora": "48",
        "fk_sala": "não informado"
      },
      {
        "fk_codigo": "CET078",
        "fk_turma": "T1",
        "fk_dia_hora": "21",
        "fk_sala": "não informado"
      },
      {
        "fk_codigo": "CET078",
        "fk_turma": "T1",
        "fk_dia_hora": "41",
        "fk_sala": "não informado"
      },
      {
        "fk_codigo": "CET078",
        "fk_turma": "T1",
        "fk_dia_hora": "21",
        "fk_sala": "não informado"
      },
      {
        "fk_codigo": "CET078",
        "fk_turma": "T1",
        "fk_dia_hora": "41",
        "fk_sala": "não informado"
      },
      {
        "fk_codigo": "CET078",
        "fk_turma": "T1",
        "fk_dia_hora": "22",
        "fk_sala": "não informado"
      },
      {
        "fk_codigo": "CET078",
        "fk_turma": "T1",
        "fk_dia_hora": "42",
        "fk_sala": "não informado"
      },
      {
        "fk_codigo": "CET078",
        "fk_turma": "T1",
        "fk_dia_hora": "22",
        "fk_sala": "não informado"
      },
      {
        "fk_codigo": "CET078",
        "fk_turma": "T1",
        "fk_dia_hora": "42",
        "fk_sala": "não informado"
      },
      {
        "fk_codigo": "CET079",
        "fk_turma": "T1",
        "fk_dia_hora": "211",
        "fk_sala": "não informado"
      },
      {
        "fk_codigo": "CET079",
        "fk_turma": "T1",
        "fk_dia_hora": "411",
        "fk_sala": "não informado"
      },
      {
        "fk_codigo": "CET079",
        "fk_turma": "T1",
        "fk_dia_hora": "212",
        "fk_sala": "não informado"
      },
      {
        "fk_codigo": "CET079",
        "fk_turma": "T1",
        "fk_dia_hora": "412",
        "fk_sala": "não informado"
      },
      {
        "fk_codigo": "CET080",
        "fk_turma": "T1",
        "fk_dia_hora": "33",
        "fk_sala": "não informado"
      },
      {
        "fk_codigo": "CET080",
        "fk_turma": "T1",
        "fk_dia_hora": "53",
        "fk_sala": "não informado"
      },
      {
        "fk_codigo": "CET080",
        "fk_turma": "T1",
        "fk_dia_hora": "34",
        "fk_sala": "não informado"
      },
      {
        "fk_codigo": "CET080",
        "fk_turma": "T1",
        "fk_dia_hora": "54",
        "fk_sala": "não informado"
      },
      {
        "fk_codigo": "CET081",
        "fk_turma": "T1",
        "fk_dia_hora": "39",
        "fk_sala": "não informado"
      },
      {
        "fk_codigo": "CET081",
        "fk_turma": "T1",
        "fk_dia_hora": "59",
        "fk_sala": "não informado"
      },
      {
        "fk_codigo": "CET081",
        "fk_turma": "T1",
        "fk_dia_hora": "310",
        "fk_sala": "não informado"
      },
      {
        "fk_codigo": "CET081",
        "fk_turma": "T1",
        "fk_dia_hora": "510",
        "fk_sala": "não informado"
      },
      {
        "fk_codigo": "CET082",
        "fk_turma": "T1",
        "fk_dia_hora": "311",
        "fk_sala": "não informado"
      },
      {
        "fk_codigo": "CET082",
        "fk_turma": "T1",
        "fk_dia_hora": "511",
        "fk_sala": "não informado"
      },
      {
        "fk_codigo": "CET082",
        "fk_turma": "T1",
        "fk_dia_hora": "312",
        "fk_sala": "não informado"
      },
      {
        "fk_codigo": "CET082",
        "fk_turma": "T1",
        "fk_dia_hora": "512",
        "fk_sala": "não informado"
      },
      {
        "fk_codigo": "CET084",
        "fk_turma": "T2",
        "fk_dia_hora": "31",
        "fk_sala": "não informado"
      },
      {
        "fk_codigo": "CET084",
        "fk_turma": "T2",
        "fk_dia_hora": "51",
        "fk_sala": "não informado"
      },
      {
        "fk_codigo": "CET084",
        "fk_turma": "T2",
        "fk_dia_hora": "32",
        "fk_sala": "não informado"
      },
      {
        "fk_codigo": "CET084",
        "fk_turma": "T2",
        "fk_dia_hora": "52",
        "fk_sala": "não informado"
      },
      {
        "fk_codigo": "CET084",
        "fk_turma": "T1",
        "fk_dia_hora": "27",
        "fk_sala": "não informado"
      },
      {
        "fk_codigo": "CET084",
        "fk_turma": "T1",
        "fk_dia_hora": "47",
        "fk_sala": "não informado"
      },
      {
        "fk_codigo": "CET084",
        "fk_turma": "T1",
        "fk_dia_hora": "28",
        "fk_sala": "não informado"
      },
      {
        "fk_codigo": "CET084",
        "fk_turma": "T1",
        "fk_dia_hora": "48",
        "fk_sala": "não informado"
      },
      {
        "fk_codigo": "CETO83",
        "fk_turma": "T1",
        "fk_dia_hora": "37",
        "fk_sala": "9127"
      },
      {
        "fk_codigo": "CETO83",
        "fk_turma": "T1",
        "fk_dia_hora": "57",
        "fk_sala": "9127"
      },
      {
        "fk_codigo": "CETO83",
        "fk_turma": "T1",
        "fk_dia_hora": "38",
        "fk_sala": "9127"
      },
      {
        "fk_codigo": "CETO83",
        "fk_turma": "T1",
        "fk_dia_hora": "58",
        "fk_sala": "9127"
      },
      {
        "fk_codigo": "CIJ098",
        "fk_turma": "T1",
        "fk_dia_hora": "43",
        "fk_sala": "9131"
      },
      {
        "fk_codigo": "CIJ098",
        "fk_turma": "T1",
        "fk_dia_hora": "63",
        "fk_sala": "9132"
      },
      {
        "fk_codigo": "CIJ098",
        "fk_turma": "T1",
        "fk_dia_hora": "44",
        "fk_sala": "9131"
      },
      {
        "fk_codigo": "CIJ098",
        "fk_turma": "T1",
        "fk_dia_hora": "64",
        "fk_sala": "9132"
      },
      {
        "fk_codigo": "CET068",
        "fk_turma": "T1",
        "fk_dia_hora": "31",
        "fk_sala": "não informado"
      },
      {
        "fk_codigo": "CET068",
        "fk_turma": "T1",
        "fk_dia_hora": "51",
        "fk_sala": "não informado"
      },
      {
        "fk_codigo": "CET068",
        "fk_turma": "T1",
        "fk_dia_hora": "32",
        "fk_sala": "não informado"
      },
      {
        "fk_codigo": "CET068",
        "fk_turma": "T1",
        "fk_dia_hora": "52",
        "fk_sala": "não informado"
      },
      {
        "fk_codigo": "CET086",
        "fk_turma": "T1",
        "fk_dia_hora": "33",
        "fk_sala": "não informado"
      },
      {
        "fk_codigo": "CET086",
        "fk_turma": "T1",
        "fk_dia_hora": "53",
        "fk_sala": "não informado"
      },
      {
        "fk_codigo": "CET086",
        "fk_turma": "T1",
        "fk_dia_hora": "34",
        "fk_sala": "não informado"
      },
      {
        "fk_codigo": "CET086",
        "fk_turma": "T1",
        "fk_dia_hora": "54",
        "fk_sala": "não informado"
      },
      {
        "fk_codigo": "CET087",
        "fk_turma": "T1",
        "fk_dia_hora": "27",
        "fk_sala": "não informado"
      },
      {
        "fk_codigo": "CET087",
        "fk_turma": "T1",
        "fk_dia_hora": "47",
        "fk_sala": "não informado"
      },
      {
        "fk_codigo": "CET087",
        "fk_turma": "T1",
        "fk_dia_hora": "28",
        "fk_sala": "não informado"
      },
      {
        "fk_codigo": "CET087",
        "fk_turma": "T1",
        "fk_dia_hora": "48",
        "fk_sala": "não informado"
      },
      {
        "fk_codigo": "CET088",
        "fk_turma": "T1",
        "fk_dia_hora": "21",
        "fk_sala": "não informado"
      },
      {
        "fk_codigo": "CET088",
        "fk_turma": "T1",
        "fk_dia_hora": "41",
        "fk_sala": "não informado"
      },
      {
        "fk_codigo": "CET088",
        "fk_turma": "T1",
        "fk_dia_hora": "22",
        "fk_sala": "não informado"
      },
      {
        "fk_codigo": "CET088",
        "fk_turma": "T1",
        "fk_dia_hora": "42",
        "fk_sala": "não informado"
      },
      {
        "fk_codigo": "CET089",
        "fk_turma": "T1",
        "fk_dia_hora": "23",
        "fk_sala": "não informado"
      },
      {
        "fk_codigo": "CET089",
        "fk_turma": "T1",
        "fk_dia_hora": "43",
        "fk_sala": "não informado"
      },
      {
        "fk_codigo": "CET089",
        "fk_turma": "T1",
        "fk_dia_hora": "24",
        "fk_sala": "não informado"
      },
      {
        "fk_codigo": "CET089",
        "fk_turma": "T1",
        "fk_dia_hora": "44",
        "fk_sala": "não informado"
      },
      {
        "fk_codigo": "CET090",
        "fk_turma": "T1",
        "fk_dia_hora": "25",
        "fk_sala": "não informado"
      },
      {
        "fk_codigo": "CET090",
        "fk_turma": "T1",
        "fk_dia_hora": "45",
        "fk_sala": "não informado"
      },
      {
        "fk_codigo": "CET090",
        "fk_turma": "T1",
        "fk_dia_hora": "26",
        "fk_sala": "não informado"
      },
      {
        "fk_codigo": "CET090",
        "fk_turma": "T1",
        "fk_dia_hora": "46",
        "fk_sala": "não informado"
      },
      {
        "fk_codigo": "CET101",
        "fk_turma": "T1",
        "fk_dia_hora": "35",
        "fk_sala": "não informado"
      },
      {
        "fk_codigo": "CET101",
        "fk_turma": "T1",
        "fk_dia_hora": "55",
        "fk_sala": "não informado"
      },
      {
        "fk_codigo": "CET101",
        "fk_turma": "T1",
        "fk_dia_hora": "36",
        "fk_sala": "não informado"
      },
      {
        "fk_codigo": "CET101",
        "fk_turma": "T1",
        "fk_dia_hora": "56",
        "fk_sala": "não informado"
      },
      {
        "fk_codigo": "CET058",
        "fk_turma": "T1",
        "fk_dia_hora": "37",
        "fk_sala": "não informado"
      },
      {
        "fk_codigo": "CET058",
        "fk_turma": "T1",
        "fk_dia_hora": "57",
        "fk_sala": "não informado"
      },
      {
        "fk_codigo": "CET058",
        "fk_turma": "T1",
        "fk_dia_hora": "38",
        "fk_sala": "não informado"
      },
      {
        "fk_codigo": "CET058",
        "fk_turma": "T1",
        "fk_dia_hora": "58",
        "fk_sala": "não informado"
      },
      {
        "fk_codigo": "CET085",
        "fk_turma": "T1",
        "fk_dia_hora": "27",
        "fk_sala": "9127"
      },
      {
        "fk_codigo": "CET085",
        "fk_turma": "T1",
        "fk_dia_hora": "28",
        "fk_sala": "9127"
      },
      {
        "fk_codigo": "CET085",
        "fk_turma": "T1",
        "fk_dia_hora": "69",
        "fk_sala": "9127"
      },
      {
        "fk_codigo": "CET085",
        "fk_turma": "T1",
        "fk_dia_hora": "610",
        "fk_sala": "9127"
      },
      {
        "fk_codigo": "CET091",
        "fk_turma": "T1",
        "fk_dia_hora": "29",
        "fk_sala": "não informado"
      },
      {
        "fk_codigo": "CET091",
        "fk_turma": "T1",
        "fk_dia_hora": "49",
        "fk_sala": "não informado"
      },
      {
        "fk_codigo": "CET091",
        "fk_turma": "T1",
        "fk_dia_hora": "210",
        "fk_sala": "não informado"
      },
      {
        "fk_codigo": "CET091",
        "fk_turma": "T1",
        "fk_dia_hora": "410",
        "fk_sala": "não informado"
      },
      {
        "fk_codigo": "CET096",
        "fk_turma": "T1",
        "fk_dia_hora": "47",
        "fk_sala": "não informado"
      },
      {
        "fk_codigo": "CET096",
        "fk_turma": "T1",
        "fk_dia_hora": "67",
        "fk_sala": "não informado"
      },
      {
        "fk_codigo": "CET096",
        "fk_turma": "T1",
        "fk_dia_hora": "48",
        "fk_sala": "não informado"
      },
      {
        "fk_codigo": "CET096",
        "fk_turma": "T1",
        "fk_dia_hora": "68",
        "fk_sala": "não informado"
      },
      {
        "fk_codigo": "CET098",
        "fk_turma": "T1",
        "fk_dia_hora": "39",
        "fk_sala": "não informado"
      },
      {
        "fk_codigo": "CET098",
        "fk_turma": "T1",
        "fk_dia_hora": "59",
        "fk_sala": "não informado"
      },
      {
        "fk_codigo": "CET098",
        "fk_turma": "T1",
        "fk_dia_hora": "310",
        "fk_sala": "não informado"
      },
      {
        "fk_codigo": "CET098",
        "fk_turma": "T1",
        "fk_dia_hora": "510",
        "fk_sala": "não informado"
      },
      {
        "fk_codigo": "CET092",
        "fk_turma": "T1",
        "fk_dia_hora": "311",
        "fk_sala": "9132"
      },
      {
        "fk_codigo": "CET092",
        "fk_turma": "T1",
        "fk_dia_hora": "511",
        "fk_sala": "9132"
      },
      {
        "fk_codigo": "CET092",
        "fk_turma": "T1",
        "fk_dia_hora": "312",
        "fk_sala": "9132"
      },
      {
        "fk_codigo": "CET092",
        "fk_turma": "T1",
        "fk_dia_hora": "512",
        "fk_sala": "9132"
      },
      {
        "fk_codigo": "CET095",
        "fk_turma": "T1",
        "fk_dia_hora": "39",
        "fk_sala": "não informado"
      },
      {
        "fk_codigo": "CET095",
        "fk_turma": "T1",
        "fk_dia_hora": "59",
        "fk_sala": "não informado"
      },
      {
        "fk_codigo": "CET095",
        "fk_turma": "T1",
        "fk_dia_hora": "310",
        "fk_sala": "não informado"
      },
      {
        "fk_codigo": "CET095",
        "fk_turma": "T1",
        "fk_dia_hora": "510",
        "fk_sala": "não informado"
      },
      {
        "fk_codigo": "CET099",
        "fk_turma": "T1",
        "fk_dia_hora": "411",
        "fk_sala": "não informado"
      },
      {
        "fk_codigo": "CET099",
        "fk_turma": "T1",
        "fk_dia_hora": "611",
        "fk_sala": "não informado"
      },
      {
        "fk_codigo": "CET099",
        "fk_turma": "T1",
        "fk_dia_hora": "412",
        "fk_sala": "não informado"
      },
      {
        "fk_codigo": "CET099",
        "fk_turma": "T1",
        "fk_dia_hora": "612",
        "fk_sala": "não informado"
      },
      {
        "fk_codigo": "CET100",
        "fk_turma": "T1",
        "fk_dia_hora": "49",
        "fk_sala": "não informado"
      },
      {
        "fk_codigo": "CET100",
        "fk_turma": "T1",
        "fk_dia_hora": "69",
        "fk_sala": "não informado"
      },
      {
        "fk_codigo": "CET100",
        "fk_turma": "T1",
        "fk_dia_hora": "410",
        "fk_sala": "não informado"
      },
      {
        "fk_codigo": "CET100",
        "fk_turma": "T1",
        "fk_dia_hora": "610",
        "fk_sala": "não informado"
      },
      {
        "fk_codigo": "CET102",
        "fk_turma": "T1",
        "fk_dia_hora": "29",
        "fk_sala": "não informado"
      },
      {
        "fk_codigo": "CET102",
        "fk_turma": "T1",
        "fk_dia_hora": "210",
        "fk_sala": "não informado"
      },
      {
        "fk_codigo": "CET097",
        "fk_turma": "T1",
        "fk_dia_hora": "65",
        "fk_sala": "não informado"
      },
      {
        "fk_codigo": "CET097",
        "fk_turma": "T1",
        "fk_dia_hora": "66",
        "fk_sala": "não informado"
      },
      {
        "fk_codigo": "CET097",
        "fk_turma": "T1",
        "fk_dia_hora": "47",
        "fk_sala": "não informado"
      },
      {
        "fk_codigo": "CET097",
        "fk_turma": "T1",
        "fk_dia_hora": "48",
        "fk_sala": "não informado"
      },
      {
        "fk_codigo": "CET103",
        "fk_turma": "T1",
        "fk_dia_hora": "35",
        "fk_sala": "não informado"
      },
      {
        "fk_codigo": "CET103",
        "fk_turma": "T1",
        "fk_dia_hora": "55",
        "fk_sala": "não informado"
      },
      {
        "fk_codigo": "CET103",
        "fk_turma": "T1",
        "fk_dia_hora": "36",
        "fk_sala": "não informado"
      },
      {
        "fk_codigo": "CET103",
        "fk_turma": "T1",
        "fk_dia_hora": "56",
        "fk_sala": "não informado"
      },
      {
        "fk_codigo": "CET105",
        "fk_turma": "T1",
        "fk_dia_hora": "31",
        "fk_sala": "não informado"
      },
      {
        "fk_codigo": "CET105",
        "fk_turma": "T1",
        "fk_dia_hora": "51",
        "fk_sala": "não informado"
      },
      {
        "fk_codigo": "CET105",
        "fk_turma": "T1",
        "fk_dia_hora": "32",
        "fk_sala": "não informado"
      },
      {
        "fk_codigo": "CET105",
        "fk_turma": "T1",
        "fk_dia_hora": "52",
        "fk_sala": "não informado"
      },
      {
        "fk_codigo": "CET111",
        "fk_turma": "T1",
        "fk_dia_hora": "25",
        "fk_sala": "não informado"
      },
      {
        "fk_codigo": "CET111",
        "fk_turma": "T1",
        "fk_dia_hora": "45",
        "fk_sala": "não informado"
      },
      {
        "fk_codigo": "CET111",
        "fk_turma": "T1",
        "fk_dia_hora": "26",
        "fk_sala": "não informado"
      },
      {
        "fk_codigo": "CET111",
        "fk_turma": "T1",
        "fk_dia_hora": "46",
        "fk_sala": "não informado"
      },
      {
        "fk_codigo": "CET112",
        "fk_turma": "T1",
        "fk_dia_hora": "33",
        "fk_sala": "não informado"
      },
      {
        "fk_codigo": "CET112",
        "fk_turma": "T1",
        "fk_dia_hora": "53",
        "fk_sala": "não informado"
      },
      {
        "fk_codigo": "CET112",
        "fk_turma": "T1",
        "fk_dia_hora": "34",
        "fk_sala": "não informado"
      },
      {
        "fk_codigo": "CET112",
        "fk_turma": "T1",
        "fk_dia_hora": "54",
        "fk_sala": "não informado"
      },
      {
        "fk_codigo": "CET115",
        "fk_turma": "T1",
        "fk_dia_hora": "21",
        "fk_sala": "não informado"
      },
      {
        "fk_codigo": "CET115",
        "fk_turma": "T1",
        "fk_dia_hora": "41",
        "fk_sala": "não informado"
      },
      {
        "fk_codigo": "CET115",
        "fk_turma": "T1",
        "fk_dia_hora": "22",
        "fk_sala": "não informado"
      },
      {
        "fk_codigo": "CET115",
        "fk_turma": "T1",
        "fk_dia_hora": "42",
        "fk_sala": "não informado"
      },
      {
        "fk_codigo": "CET125",
        "fk_turma": "T1",
        "fk_dia_hora": "23",
        "fk_sala": "não informado"
      },
      {
        "fk_codigo": "CET125",
        "fk_turma": "T1",
        "fk_dia_hora": "43",
        "fk_sala": "não informado"
      },
      {
        "fk_codigo": "CET125",
        "fk_turma": "T1",
        "fk_dia_hora": "24",
        "fk_sala": "não informado"
      },
      {
        "fk_codigo": "CET125",
        "fk_turma": "T1",
        "fk_dia_hora": "44",
        "fk_sala": "não informado"
      }
    ]
  }
}